<svg width="215" height="215" viewBox="0 0 215 215" fill="none" xmlns="http://www.w3.org/2000/svg">
<g filter="url(#filter0_d_1423_1050)">
<rect x="29" y="25.3672" width="148.006" height="148" rx="24" fill="#FFFCD5" fill-opacity="0.25" shape-rendering="crispEdges"/>
<path d="M140.89 74.0324H135.567V62.7576C135.567 59.7704 133.141 57.3672 130.176 57.3672H120.968C120.564 57.3672 120.159 57.4121 119.778 57.5019C117.307 58.041 115.555 60.2421 115.555 62.78V66.3062C114.477 65.9019 113.354 65.5201 112.231 65.2281C93.3422 60.1522 73.9369 71.3597 68.861 90.226C68.0524 93.2132 67.6481 96.2677 67.6481 99.3672C67.6481 104.106 68.5914 108.8 70.4556 113.135V117.784H65.1102C62.8417 117.784 61 119.626 61 121.894C61 122.995 61.4267 124.028 62.2128 124.814L77.5529 140.154C78.3166 140.94 79.3722 141.367 80.4727 141.367C81.5508 141.367 82.6064 140.94 83.3701 140.154L90.939 132.608C109.311 139.278 129.615 129.778 136.263 111.406C137.656 107.543 138.374 103.477 138.374 99.3672C138.374 95.5939 137.768 91.8656 136.578 88.272L143.81 81.0399C145.404 79.4228 145.404 76.8399 143.81 75.2228C143.024 74.4816 141.99 74.0324 140.89 74.0324ZM75.015 83.4207C83.1005 69.2485 100.484 63.364 115.533 69.6752V74.0324H111.67C111.108 73.8303 110.547 73.6506 109.985 73.4934C98.216 70.3265 85.7733 75.4923 79.754 86.0934C77.1487 90.6303 75.9358 95.8859 76.2952 101.119C74.2064 100.984 72.0952 102.085 71.107 103.927C70.0738 96.8517 71.4663 89.6421 75.015 83.4207ZM99.9005 122.052C99.923 121.221 99.6984 120.39 99.2492 119.693C98.508 118.503 97.1829 117.784 95.7904 117.807H90.4449V106.532C90.4449 103.545 88.0193 101.142 85.0545 101.142H79.4171C79.3722 100.558 79.3497 99.9736 79.3497 99.3896C79.3722 88.6987 86.5369 79.3554 96.846 76.5704C100.058 75.7169 103.404 75.5372 106.683 76.0538C105.695 77.6709 105.965 79.7372 107.29 81.0848L122.63 96.4249C123.394 97.211 124.449 97.6378 125.55 97.6378H125.595C125.797 97.6153 126.021 97.5929 126.224 97.5704C126.313 97.5479 126.381 97.5479 126.471 97.5255C126.516 97.5255 126.538 97.5255 126.583 97.503C126.628 98.1319 126.65 98.7608 126.65 99.3896C126.65 112.439 116.049 123.017 103 123.017C101.944 123.017 100.889 122.95 99.8332 122.793C99.8556 122.546 99.9005 122.299 99.9005 122.052ZM81.1241 137.953C80.9444 138.133 80.7198 138.223 80.4503 138.223C80.2032 138.2 79.9561 138.111 79.754 137.931L64.4139 122.591C64.0321 122.209 64.0321 121.602 64.4139 121.221C64.5936 121.041 64.8406 120.929 65.1102 120.929H72.0053C72.8813 120.929 73.5775 120.232 73.5775 119.356V106.509C73.5775 105.454 74.3187 104.533 75.3519 104.308C75.5091 104.263 75.6663 104.263 75.846 104.263H85.0545C86.2898 104.263 87.3005 105.274 87.3005 106.509V119.356C87.3005 120.232 87.9968 120.929 88.8727 120.929H95.8128C96.1497 120.906 96.4417 121.086 96.6214 121.355C96.8011 121.647 96.8235 121.984 96.6888 122.299C96.6438 122.389 96.5765 122.501 96.5091 122.568L96.2845 122.793L81.1241 137.953ZM130.985 115.336C123.483 128.475 107.851 134.652 93.3872 130.137L97.8791 125.645C99.5636 125.982 101.271 126.139 103 126.139C117.756 126.162 129.75 114.213 129.772 99.4346C129.772 98.0645 129.682 96.7169 129.458 95.3693L134.04 90.7875C136.353 99.0527 135.23 107.879 130.985 115.336ZM141.766 78.5469C141.721 78.6592 141.653 78.749 141.564 78.8164L133.658 86.7223C133.658 86.7223 133.635 86.7223 133.635 86.7447L126.201 94.179C126.021 94.3586 125.797 94.4485 125.527 94.4485C125.28 94.4485 125.033 94.3362 124.853 94.1565L109.513 78.8388C109.132 78.457 109.132 77.8506 109.513 77.4688C109.693 77.2891 109.94 77.1768 110.21 77.1768H117.105C117.981 77.1768 118.677 76.4806 118.677 75.6046V62.7576C118.677 61.7019 119.418 60.7811 120.451 60.5565C120.609 60.5116 120.766 60.5116 120.945 60.5116H130.154C131.389 60.5116 132.4 61.5223 132.4 62.7576V75.6046C132.4 76.4806 133.096 77.1768 133.972 77.1768H140.89C141.227 77.1544 141.519 77.334 141.698 77.6036C141.878 77.8955 141.901 78.2549 141.766 78.5469Z" fill="#FFD530"/>
<path d="M101.428 111.18C101.428 112.056 102.124 112.753 103 112.753C103.876 112.753 104.572 112.056 104.572 111.18V109.226C107.717 108.979 110.075 106.217 109.806 103.05C109.558 100.085 107.088 97.7944 104.101 97.7944H101.9C100.462 97.7719 99.3392 96.5815 99.3617 95.1666C99.3841 93.7741 100.507 92.6511 101.9 92.6286H107.155C108.031 92.6286 108.727 91.9323 108.727 91.0564C108.727 90.1805 108.031 89.4842 107.155 89.4842H104.572V87.5527C104.572 86.6767 103.876 85.9805 103 85.9805C102.124 85.9805 101.428 86.6767 101.428 87.5527V89.5067C98.2836 89.7537 95.9253 92.5163 96.1948 95.6831C96.4419 98.6479 98.9125 100.939 101.9 100.939H104.101C105.538 100.939 106.684 102.107 106.684 103.522C106.684 104.937 105.516 106.105 104.101 106.105H98.8451C97.9691 106.105 97.2729 106.801 97.2729 107.677C97.2729 108.553 97.9691 109.249 98.8451 109.249H101.428V111.18Z" fill="#FFD530"/>
<rect x="28.5" y="24.8672" width="149.006" height="149" rx="24.5" stroke="white" stroke-opacity="0.5" shape-rendering="crispEdges"/>
</g>
<defs>
<filter id="filter0_d_1423_1050" x="0" y="0.367188" width="214.006" height="214" filterUnits="userSpaceOnUse" color-interpolation-filters="sRGB">
<feFlood flood-opacity="0" result="BackgroundImageFix"/>
<feColorMatrix in="SourceAlpha" type="matrix" values="0 0 0 0 0 0 0 0 0 0 0 0 0 0 0 0 0 0 127 0" result="hardAlpha"/>
<feOffset dx="4" dy="8"/>
<feGaussianBlur stdDeviation="16"/>
<feComposite in2="hardAlpha" operator="out"/>
<feColorMatrix type="matrix" values="0 0 0 0 0 0 0 0 0 0 0 0 0 0 0 0 0 0 0.03 0"/>
<feBlend mode="normal" in2="BackgroundImageFix" result="effect1_dropShadow_1423_1050"/>
<feBlend mode="normal" in="SourceGraphic" in2="effect1_dropShadow_1423_1050" result="shape"/>
</filter>
</defs>
</svg>
